Gen: 20	0.0
Gen: 30	0.0
Gen: 40	0.0
Gen: 50	0.0
Gen: 60	0.0
Gen: 70	0.0
Gen: 80	0.0
Gen: 90	0.0
Gen: 100	0.0
Gen: 20	0.0
Gen: 30	0.0
Gen: 40	0.0
Gen: 50	0.0
Gen: 60	0.0
Gen: 70	0.0
Gen: 80	0.0
Gen: 90	0.0
Gen: 100	0.0
Gen: 20	0.0
Gen: 30	0.0
Gen: 40	0.0
Gen: 50	0.0
Gen: 60	0.0
Gen: 70	0.0
Gen: 80	0.0
Gen: 90	0.0
Gen: 100	0.0
Gen: 20	0.0
Gen: 30	0.0
Gen: 40	0.0
Gen: 50	0.0
Gen: 60	0.0
Gen: 70	0.0
Gen: 80	0.0
Gen: 90	0.0
Gen: 100	0.0
Gen: 20	0.0
Gen: 30	0.0
Gen: 40	0.0
Gen: 50	0.0
Gen: 60	0.0
Gen: 70	0.0
Gen: 80	0.0
Gen: 90	0.0
Gen: 100	0.0
Gen: 20	0.0
Gen: 30	0.0
Gen: 40	0.0
Gen: 50	0.0
Gen: 60	0.0
Gen: 70	0.0
Gen: 80	0.0
Gen: 90	0.0
Gen: 100	0.0
Gen: 20	0.0
Gen: 30	0.0
Gen: 40	0.0
Gen: 50	0.0
Gen: 60	0.0
Gen: 70	0.0
Gen: 80	0.0
Gen: 90	0.0
Gen: 100	0.0
Gen: 20	0.0
Gen: 30	0.0
Gen: 40	0.0
Gen: 50	0.0
Gen: 60	0.0
Gen: 70	0.0
Gen: 80	0.0
Gen: 90	0.0
Gen: 100	0.0
Gen: 20	0.0
Gen: 30	0.0
Gen: 40	0.0
Gen: 50	0.0
Gen: 60	0.0
Gen: 70	0.0
Gen: 80	0.0
Gen: 90	0.0
Gen: 100	0.0
Gen: 20	0.0
Gen: 30	0.0
Gen: 40	0.0
Gen: 50	0.0
Gen: 60	0.0
Gen: 70	0.0
Gen: 80	0.0
Gen: 90	0.0
Gen: 100	0.0
Gen: 20	0.0
Gen: 30	0.0
Gen: 40	0.0
Gen: 50	0.0
Gen: 60	0.0
Gen: 70	0.0
Gen: 80	0.0
Gen: 90	0.0
Gen: 100	0.0
Gen: 20	0.0
Gen: 30	0.0
Gen: 40	0.0
Gen: 50	0.0
Gen: 60	0.0
Gen: 70	0.0
Gen: 80	0.0
Gen: 90	0.0
Gen: 100	0.0
Gen: 20	0.0
Gen: 30	0.0
Gen: 40	0.0
Gen: 50	0.0
Gen: 60	0.0
Gen: 70	0.0
Gen: 80	0.0
Gen: 90	0.0
Gen: 100	0.0
Gen: 20	0.0
Gen: 30	0.0
Gen: 40	0.0
Gen: 50	0.0
Gen: 60	0.0
Gen: 70	0.0
Gen: 80	0.0
Gen: 90	0.0
Gen: 100	0.0
Gen: 20	0.0
Gen: 30	0.0
Gen: 40	0.0
Gen: 50	0.0
Gen: 60	0.0
Gen: 70	0.0
Gen: 80	0.0
Gen: 90	0.0
Gen: 100	0.0
