
.....
New Run
....
Gen: 100	-2.0
Gen: 200	-2.0
Gen: 300	-2.0
Gen: 400	-2.0
Gen: 500	-2.0
Gen: 600	-2.0
Gen: 700	-2.0
Gen: 800	-2.0
Gen: 900	-2.0
Gen: 1000	-2.0

.....
New Run
....
Gen: 100	-2.0
Gen: 200	-2.0
Gen: 300	-2.0
Gen: 400	-2.0
Gen: 500	-2.0
Gen: 600	-2.0
Gen: 700	-2.0
Gen: 800	-2.0
Gen: 900	-2.0
Gen: 1000	-2.0

.....
New Run
....
Gen: 100	-2.0
Gen: 200	-2.0
Gen: 300	-2.0
Gen: 400	-2.0
Gen: 500	-2.0
Gen: 600	-2.0
Gen: 700	-2.0
Gen: 800	-2.0
Gen: 900	-2.0
Gen: 1000	-2.0

.....
New Run
....
Gen: 100	-2.0
Gen: 200	-2.0
Gen: 300	-2.0
Gen: 400	-2.0
Gen: 500	-2.0
Gen: 600	-2.0
Gen: 700	-2.0
Gen: 800	-2.0
Gen: 900	-2.0
Gen: 1000	-2.0

.....
New Run
....
Gen: 100	-2.0
Gen: 200	-2.0
Gen: 300	-2.0
Gen: 400	-2.0
Gen: 500	-2.0
Gen: 600	-2.0
Gen: 700	-2.0
Gen: 800	-2.0
Gen: 900	-2.0
Gen: 1000	-2.0

.....
New Run
....
Gen: 100	-2.0
Gen: 200	-2.0
Gen: 300	-2.0
Gen: 400	-2.0
Gen: 500	-2.0
Gen: 600	-2.0
Gen: 700	-2.0
Gen: 800	-2.0
Gen: 900	-2.0
Gen: 1000	-2.0

.....
New Run
....
Gen: 100	-2.0
Gen: 200	-2.0
Gen: 300	-2.0
Gen: 400	-2.0
Gen: 500	-2.0
Gen: 600	-2.0
Gen: 700	-2.0
Gen: 800	-2.0
Gen: 900	-2.0
Gen: 1000	-2.0

.....
New Run
....
Gen: 100	-2.0
Gen: 200	-2.0
Gen: 300	-2.0
Gen: 400	-2.0
Gen: 500	-2.0
Gen: 600	-2.0
Gen: 700	-2.0
Gen: 800	-2.0
Gen: 900	-2.0
Gen: 1000	-2.0

.....
New Run
....
Gen: 100	-2.0
Gen: 200	-2.0
Gen: 300	-2.0
Gen: 400	-2.0
Gen: 500	-2.0
Gen: 600	-2.0
Gen: 700	-2.0
Gen: 800	-2.0
Gen: 900	-2.0
Gen: 1000	-2.0

.....
New Run
....
Gen: 100	-2.0
Gen: 200	-2.0
Gen: 300	-2.0
Gen: 400	-2.0
Gen: 500	-2.0
Gen: 600	-2.0
Gen: 700	-2.0
Gen: 800	-2.0
Gen: 900	-2.0
Gen: 1000	-2.0

.....
New Run
....
Gen: 100	-2.0
Gen: 200	-2.0
Gen: 300	-2.0
Gen: 400	-2.0
Gen: 500	-2.0
Gen: 600	-2.0
Gen: 700	-2.0
Gen: 800	-2.0
Gen: 900	-2.0
Gen: 1000	-2.0

.....
New Run
....
Gen: 100	-2.0
Gen: 200	-2.0
Gen: 300	-2.0
Gen: 400	-2.0
Gen: 500	-2.0
Gen: 600	-2.0
Gen: 700	-2.0
Gen: 800	-2.0
Gen: 900	-2.0
Gen: 1000	-2.0

.....
New Run
....
Gen: 100	-2.0
Gen: 200	-2.0
Gen: 300	-2.0
Gen: 400	-2.0
Gen: 500	-2.0
Gen: 600	-2.0
Gen: 700	-2.0
Gen: 800	-2.0
Gen: 900	-2.0
Gen: 1000	-2.0

.....
New Run
....
Gen: 100	-2.0
Gen: 200	-2.0
Gen: 300	-2.0
Gen: 400	-2.0
Gen: 500	-2.0
Gen: 600	-2.0
Gen: 700	-2.0
Gen: 800	-2.0
Gen: 900	-2.0
Gen: 1000	-2.0

.....
New Run
....
Gen: 100	-2.0
Gen: 200	-2.0
Gen: 300	-2.0
Gen: 400	-2.0
Gen: 500	-2.0
Gen: 600	-2.0
Gen: 700	-2.0
Gen: 800	-2.0
Gen: 900	-2.0
Gen: 1000	-2.0

.....
New Run
....
Gen: 100	-2.0
Gen: 200	-2.0
Gen: 300	-2.0
Gen: 400	-2.0
Gen: 500	-2.0
Gen: 600	-2.0
Gen: 700	-2.0
Gen: 800	-2.0
Gen: 900	-2.0
Gen: 1000	-2.0

.....
New Run
....
Gen: 100	-2.0
Gen: 200	-2.0
Gen: 300	-2.0
Gen: 400	-2.0
Gen: 500	-2.0
Gen: 600	-2.0
Gen: 700	-2.0
Gen: 800	-2.0
Gen: 900	-2.0
Gen: 1000	-2.0

.....
New Run
....
Gen: 100	-2.0
Gen: 200	-2.0
Gen: 300	-2.0
Gen: 400	-2.0
Gen: 500	-2.0
Gen: 600	-2.0
Gen: 700	-2.0
Gen: 800	-2.0
Gen: 900	-2.0
Gen: 1000	-2.0

.....
New Run
....
Gen: 100	-2.0
Gen: 200	-2.0
Gen: 300	-2.0
Gen: 400	-2.0
Gen: 500	-2.0
Gen: 600	-2.0
Gen: 700	-2.0
Gen: 800	-2.0
Gen: 900	-2.0
Gen: 1000	-2.0

.....
New Run
....
Gen: 100	-2.0
Gen: 200	-2.0
Gen: 300	-2.0
Gen: 400	-2.0
Gen: 500	-2.0
Gen: 600	-2.0
Gen: 700	-2.0
Gen: 800	-2.0
Gen: 900	-2.0
Gen: 1000	-2.0
